<svg width="165" height="49" viewBox="0 0 165 49" fill="none" xmlns="http://www.w3.org/2000/svg">
<path d="M158.889 49H6.11111C2.68889 49 0 46.1825 0 42.875V6.125C0 2.695 2.81111 0 6.11111 0H158.889C162.311 0 165 2.8175 165 6.125V42.875C165 46.305 162.311 49 158.889 49Z" fill="#484151"/>
<path d="M158.889 0.98C161.7 0.98 164.022 3.3075 164.022 6.125V42.875C164.022 45.6925 161.7 48.02 158.889 48.02H6.11111C3.3 48.02 0.977778 45.6925 0.977778 42.875V6.125C0.977778 3.3075 3.3 0.98 6.11111 0.98H158.889ZM158.889 0H6.11111C2.81111 0 0 2.8175 0 6.125V42.875C0 46.305 2.81111 49 6.11111 49H158.889C162.311 49 165 46.1825 165 42.875V6.125C165 2.8175 162.311 0 158.889 0Z" fill="#A6A6A6"/>
<path d="M83.2333 26.7051C80.3 26.7051 77.9777 28.9101 77.9777 31.9726C77.9777 34.9126 80.3 37.2401 83.2333 37.2401C86.1666 37.2401 88.4888 35.0351 88.4888 31.9726C88.4888 28.7876 86.1666 26.7051 83.2333 26.7051ZM83.2333 35.0351C81.6444 35.0351 80.2999 33.6876 80.2999 31.8501C80.2999 30.0126 81.6444 28.6651 83.2333 28.6651C84.8222 28.6651 86.1666 29.8901 86.1666 31.8501C86.1666 33.6876 84.8222 35.0351 83.2333 35.0351ZM71.8666 26.7051C68.9333 26.7051 66.6111 28.9101 66.6111 31.9726C66.6111 34.9126 68.9333 37.2401 71.8666 37.2401C74.8 37.2401 77.1222 35.0351 77.1222 31.9726C77.1222 28.7876 74.8 26.7051 71.8666 26.7051ZM71.8666 35.0351C70.2777 35.0351 68.9333 33.6876 68.9333 31.8501C68.9333 30.0126 70.2777 28.6651 71.8666 28.6651C73.4555 28.6651 74.8 29.8901 74.8 31.8501C74.8 33.6876 73.4555 35.0351 71.8666 35.0351ZM58.2999 28.2976V30.5026H63.5555C63.4333 31.7276 62.9444 32.7076 62.3333 33.3201C61.5999 34.0551 60.3777 34.9126 58.2999 34.9126C54.9999 34.9126 52.5555 32.3401 52.5555 29.0326C52.5555 25.7251 55.1222 23.1526 58.2999 23.1526C60.0111 23.1526 61.3555 23.8876 62.3333 24.7451L63.9222 23.1526C62.5777 21.9276 60.8666 20.9476 58.4222 20.9476C54.0222 20.9476 50.2333 24.6226 50.2333 29.0326C50.2333 33.4426 54.0222 37.1176 58.4222 37.1176C60.8666 37.1176 62.5777 36.3826 64.0444 34.7901C65.5111 33.3201 65.9999 31.2376 65.9999 29.6451C65.9999 29.1551 66 28.6651 65.8777 28.2976H58.2999ZM113.789 30.0126C113.3 28.7876 112.078 26.7051 109.389 26.7051C106.7 26.7051 104.5 28.7876 104.5 31.9726C104.5 34.9126 106.7 37.2401 109.633 37.2401C111.956 37.2401 113.422 35.7701 113.911 34.9126L112.2 33.6876C111.589 34.5451 110.856 35.1576 109.633 35.1576C108.411 35.1576 107.678 34.6676 107.067 33.5651L114.033 30.6251L113.789 30.0126ZM106.7 31.7276C106.7 29.7676 108.289 28.6651 109.389 28.6651C110.244 28.6651 111.1 29.1551 111.344 29.7676L106.7 31.7276ZM100.956 36.7501H103.278V21.4376H100.956V36.7501ZM97.2888 27.8076C96.6777 27.1951 95.7 26.5826 94.4777 26.5826C91.9111 26.5826 89.4666 28.9101 89.4666 31.8501C89.4666 34.7901 91.7888 36.9951 94.4777 36.9951C95.7 36.9951 96.6777 36.3826 97.1666 35.7701H97.2888V36.5051C97.2888 38.4651 96.1889 39.5676 94.4777 39.5676C93.1333 39.5676 92.1555 38.5876 91.9111 37.7301L89.9555 38.5876C90.5666 39.9351 92.0333 41.6501 94.6 41.6501C97.2888 41.6501 99.4888 40.0576 99.4888 36.2601V26.9501H97.2888V27.8076ZM94.6 35.0351C93.0111 35.0351 91.6666 33.6876 91.6666 31.8501C91.6666 30.0126 93.0111 28.6651 94.6 28.6651C96.1889 28.6651 97.4111 30.0126 97.4111 31.8501C97.4111 33.6876 96.1889 35.0351 94.6 35.0351ZM124.422 21.4376H118.922V36.7501H121.244V30.9926H124.422C126.989 30.9926 129.433 29.1551 129.433 26.2151C129.433 23.2751 126.989 21.4376 124.422 21.4376ZM124.544 28.7876H121.244V23.5201H124.544C126.256 23.5201 127.233 24.9901 127.233 26.0926C127.111 27.4401 126.133 28.7876 124.544 28.7876ZM138.6 26.5826C136.889 26.5826 135.178 27.3176 134.567 28.9101L136.644 29.7676C137.133 28.9101 137.867 28.6651 138.722 28.6651C139.944 28.6651 141.044 29.4001 141.167 30.6251V30.7476C140.8 30.5026 139.822 30.1351 138.844 30.1351C136.644 30.1351 134.444 31.3601 134.444 33.5651C134.444 35.6476 136.278 36.9951 138.233 36.9951C139.822 36.9951 140.556 36.2601 141.167 35.5251H141.289V36.7501H143.489V30.8701C143.244 28.1751 141.167 26.5826 138.6 26.5826ZM138.356 35.0351C137.622 35.0351 136.522 34.6676 136.522 33.6876C136.522 32.4626 137.867 32.0951 138.967 32.0951C139.944 32.0951 140.433 32.3401 141.044 32.5851C140.8 34.0551 139.578 35.0351 138.356 35.0351ZM151.189 26.9501L148.622 33.5651H148.5L145.811 26.9501H143.367L147.4 36.2601L145.078 41.4051H147.4L153.633 26.9501H151.189ZM130.656 36.7501H132.978V21.4376H130.656V36.7501Z" fill="white"/>
<path d="M12.7111 9.1875C12.3445 9.555 12.2222 10.1675 12.2222 10.9025V37.975C12.2222 38.71 12.4667 39.3225 12.8333 39.69L12.9556 39.8125L28.1111 24.6225V24.5V24.3775L12.7111 9.1875Z" fill="url(#paint0_linear)"/>
<path d="M33.0001 29.7675L27.989 24.745V24.5V24.3775L33.0001 19.355L33.1223 19.4775L39.1112 22.9075C40.8223 23.8875 40.8223 25.48 39.1112 26.46L33.0001 29.7675Z" fill="url(#paint1_linear)"/>
<path d="M33.1222 29.645L27.9889 24.5L12.7111 39.8125C13.3222 40.425 14.1778 40.425 15.2778 39.935L33.1222 29.645Z" fill="url(#paint2_linear)"/>
<path d="M33.1222 19.3551L15.2778 9.1876C14.1778 8.5751 13.3222 8.6976 12.7111 9.3101L27.9889 24.5001L33.1222 19.3551Z" fill="url(#paint3_linear)"/>
<path opacity="0.2" d="M33 29.5226L15.2778 39.5676C14.3 40.1801 13.4445 40.0576 12.8333 39.5676L12.7111 39.6901L12.8333 39.8126C13.4445 40.3026 14.3 40.4251 15.2778 39.8126L33 29.5226Z" fill="black"/>
<path opacity="0.12" d="M12.7111 39.5675C12.3445 39.2 12.2222 38.5875 12.2222 37.8525V37.975C12.2222 38.71 12.4667 39.3225 12.8333 39.69V39.5675H12.7111Z" fill="black"/>
<path opacity="0.12" d="M39.1111 26.0925L33 29.5225L33.1222 29.645L39.1111 26.215C39.9667 25.725 40.3333 25.1125 40.3333 24.5C40.3333 25.1125 39.8444 25.6025 39.1111 26.0925Z" fill="black"/>
<path opacity="0.25" d="M15.2778 9.31L39.1111 22.9075C39.8445 23.3975 40.3333 23.8875 40.3333 24.5C40.3333 23.8875 39.9667 23.275 39.1111 22.785L15.2778 9.1875C13.5667 8.2075 12.2222 8.9425 12.2222 10.9025V11.025C12.2222 9.1875 13.5667 8.33 15.2778 9.31Z" fill="white"/>
<path d="M51.4556 17.5175H50.6V15.0675H51.3334C51.9445 14.5775 52.3111 13.5975 52.3111 12.25V8.57501H57.2V15.0675H58.0556V17.5175H57.2V15.925H51.5778V17.5175H51.4556ZM53.1667 12.25C53.1667 13.3525 52.9223 14.3325 52.4334 15.0675H56.1V9.43251H53.0445V12.25H53.1667Z" fill="white" stroke="white" stroke-width="0.2" stroke-miterlimit="10"/>
<path d="M65.2667 14.945C64.5333 15.68 63.6778 16.0475 62.5778 16.0475C61.4778 16.0475 60.6222 15.68 59.8889 14.945C59.1555 14.21 58.7889 13.3525 58.7889 12.25C58.7889 11.1475 59.1555 10.29 59.8889 9.55495C60.6222 8.81995 61.4778 8.45245 62.5778 8.45245C63.6778 8.45245 64.5333 8.81995 65.2667 9.55495C66 10.29 66.3667 11.1475 66.3667 12.25C66.3667 13.3525 66 14.21 65.2667 14.945ZM60.6222 14.3325C61.1111 14.8225 61.8444 15.19 62.5778 15.19C63.3111 15.19 64.0444 14.945 64.5333 14.3325C65.0222 13.8425 65.3889 13.1075 65.3889 12.25C65.3889 11.3925 65.1444 10.6575 64.5333 10.1675C64.0444 9.67745 63.3111 9.30995 62.5778 9.30995C61.8444 9.30995 61.1111 9.55495 60.6222 10.1675C60.1333 10.6575 59.7667 11.3925 59.7667 12.25C59.7667 13.1075 60.0111 13.8425 60.6222 14.3325Z" fill="white" stroke="white" stroke-width="0.2" stroke-miterlimit="10"/>
<path d="M71.1333 16.0475C70.0333 16.0475 69.1778 15.68 68.4444 14.945C67.7111 14.21 67.3444 13.3525 67.3444 12.25C67.3444 11.1475 67.7111 10.29 68.4444 9.55495C69.1778 8.81995 70.0333 8.45245 71.1333 8.45245C72.2333 8.45245 73.0889 8.81995 73.8222 9.67745L73.2111 10.29C72.7222 9.67745 71.9889 9.30995 71.1333 9.30995C70.2778 9.30995 69.6666 9.55495 69.0555 10.1675C68.4444 10.6575 68.2 11.3925 68.2 12.25C68.2 13.1075 68.4444 13.8425 69.0555 14.3325C69.5444 14.8225 70.2778 15.19 71.1333 15.19C71.9889 15.19 72.7222 14.8225 73.3333 14.0875L73.9444 14.7C73.5777 15.0675 73.2111 15.435 72.7222 15.68C72.2333 15.925 71.7444 16.0475 71.1333 16.0475Z" fill="white" stroke="white" stroke-width="0.2" stroke-miterlimit="10"/>
<path d="M77.8556 15.925H76.8778V9.43251H74.8V8.57501H79.8112V9.43251H77.7334V15.925H77.8556Z" fill="white" stroke="white" stroke-width="0.2" stroke-miterlimit="10"/>
<path d="M86.289 8.57501L83.4779 14.8225C83.1112 15.68 82.5001 16.17 81.7667 16.17C81.5223 16.17 81.2779 16.17 81.0334 16.0475L81.2779 15.19C81.4001 15.3125 81.6445 15.3125 81.7667 15.3125C82.0112 15.3125 82.1334 15.3125 82.2556 15.19C82.3779 15.0675 82.5001 14.945 82.6223 14.7L82.8667 14.0875L80.4223 8.69751H81.5223L83.3556 12.8625L85.189 8.57501H86.289Z" fill="white" stroke="white" stroke-width="0.2" stroke-miterlimit="10"/>
<path d="M87.3889 15.925V8.57501H92.6445V15.925H91.6667V9.43251H88.2445V15.925H87.3889Z" fill="white" stroke="white" stroke-width="0.2" stroke-miterlimit="10"/>
<path d="M94.3557 15.925V8.57501H95.3334V11.76H99.0001V8.57501H99.9779V15.925H99.0001V12.6175H95.3334V15.925H94.3557Z" fill="white" stroke="white" stroke-width="0.2" stroke-miterlimit="10"/>
<path d="M107.678 14.945C106.945 15.68 106.089 16.0475 104.989 16.0475C103.889 16.0475 103.033 15.68 102.3 14.945C101.567 14.21 101.2 13.3525 101.2 12.25C101.2 11.1475 101.567 10.29 102.3 9.55495C103.033 8.81995 103.889 8.45245 104.989 8.45245C106.089 8.45245 106.945 8.81995 107.678 9.55495C108.411 10.29 108.778 11.1475 108.778 12.25C108.656 13.3525 108.289 14.21 107.678 14.945ZM102.911 14.3325C103.4 14.8225 104.133 15.19 104.867 15.19C105.6 15.19 106.333 14.945 106.822 14.3325C107.311 13.8425 107.678 13.1075 107.678 12.25C107.678 11.3925 107.433 10.6575 106.822 10.1675C106.333 9.67745 105.6 9.30995 104.867 9.30995C104.133 9.30995 103.4 9.55495 102.911 10.1675C102.422 10.6575 102.056 11.3925 102.056 12.25C102.056 13.1075 102.422 13.8425 102.911 14.3325Z" fill="white" stroke="white" stroke-width="0.2" stroke-miterlimit="10"/>
<path d="M112.567 15.925V8.57501H115.256C115.867 8.57501 116.356 8.82001 116.722 9.18751C117.089 9.55501 117.333 10.045 117.333 10.535C117.333 10.9025 117.211 11.1475 117.089 11.515C116.967 11.76 116.722 12.005 116.356 12.1275C116.722 12.25 116.967 12.495 117.211 12.74C117.456 12.985 117.578 13.3525 117.578 13.8425C117.578 14.455 117.333 14.945 116.967 15.3125C116.478 15.68 115.989 15.925 115.378 15.925H112.567ZM113.544 11.76H115.256C115.622 11.76 115.867 11.6375 116.111 11.3925C116.356 11.1475 116.478 10.9025 116.478 10.6575C116.478 10.4125 116.233 10.045 116.111 9.80001C115.867 9.55501 115.622 9.43251 115.256 9.43251H113.544V11.76ZM113.544 15.0675H115.5C115.867 15.0675 116.111 14.945 116.356 14.7C116.6 14.455 116.722 14.21 116.722 13.8425C116.722 13.5975 116.6 13.23 116.356 12.985C116.111 12.74 115.867 12.6175 115.5 12.6175H113.667V15.0675H113.544Z" fill="white" stroke="white" stroke-width="0.2" stroke-miterlimit="10"/>
<defs>
<linearGradient id="paint0_linear" x1="26.644" y1="10.6695" x2="6.08558" y2="31.1813" gradientUnits="userSpaceOnUse">
<stop stop-color="#00A0FF"/>
<stop offset="0.00657445" stop-color="#00A1FF"/>
<stop offset="0.2601" stop-color="#00BEFF"/>
<stop offset="0.5122" stop-color="#00D2FF"/>
<stop offset="0.7604" stop-color="#00DFFF"/>
<stop offset="1" stop-color="#00E3FF"/>
</linearGradient>
<linearGradient id="paint1_linear" x1="41.3531" y1="24.5018" x2="11.7791" y2="24.5018" gradientUnits="userSpaceOnUse">
<stop stop-color="#FFE000"/>
<stop offset="0.4087" stop-color="#FFBD00"/>
<stop offset="0.7754" stop-color="#FFA500"/>
<stop offset="1" stop-color="#FF9C00"/>
</linearGradient>
<linearGradient id="paint2_linear" x1="30.344" y1="27.3128" x2="2.46515" y2="55.1285" gradientUnits="userSpaceOnUse">
<stop stop-color="#FF3A44"/>
<stop offset="1" stop-color="#C31162"/>
</linearGradient>
<linearGradient id="paint3_linear" x1="8.91881" y1="0.216069" x2="21.368" y2="12.6369" gradientUnits="userSpaceOnUse">
<stop stop-color="#32A071"/>
<stop offset="0.0685" stop-color="#2DA771"/>
<stop offset="0.4762" stop-color="#15CF74"/>
<stop offset="0.8009" stop-color="#06E775"/>
<stop offset="1" stop-color="#00F076"/>
</linearGradient>
</defs>
</svg>
