<svg width="171" height="168" viewBox="0 0 171 168" fill="none" xmlns="http://www.w3.org/2000/svg">
<path d="M54.6752 0L114.394 20.4223L132.329 5.62082L171 34.8491L128.53 168H0L54.6752 0Z" fill="#EE1C25"/>
<path d="M66.7566 39.783C73.4198 39.783 78.8375 45.2164 78.8375 51.8989V86.4357C78.8375 93.1183 73.4198 98.5517 66.7566 98.5517C60.0935 98.5517 54.6758 93.1183 54.6758 86.4357V51.8989C54.6758 45.2164 60.0935 39.783 66.7566 39.783Z" fill="white"/>
<path d="M111.966 69.4485L120.373 77.8797C125.105 82.6262 125.105 90.2455 120.373 94.992C115.702 99.676 108.105 99.7384 103.372 95.0544C98.764 90.308 98.764 82.8135 103.31 78.1295L103.434 78.0046L105.863 75.5689L111.966 69.4485Z" fill="white"/>
<path d="M102.376 77.4425L102.251 77.5674C98.0168 81.9391 97.7054 88.6841 101.317 93.3681L101.255 93.4306L85.3132 77.5049C80.5805 72.7584 80.5805 65.0766 85.2509 60.3302L102.189 43.3428C106.922 38.5963 114.519 38.5963 119.252 43.3428C123.984 48.0893 123.984 55.7086 119.252 60.4551L104.742 75.0068L102.376 77.4425Z" fill="white"/>
<path d="M56.7928 121.909H61.6501C61.6501 121.909 62.771 121.909 62.8955 121.909C63.2069 121.909 63.3937 121.972 63.5182 122.034C63.6428 122.097 63.7051 122.284 63.7051 122.534V131.902C63.7051 132.027 63.7051 132.089 63.6428 132.214C63.5805 132.277 63.5182 132.339 63.456 132.402C63.3937 132.464 63.2691 132.464 63.2069 132.464C63.0823 132.464 62.9578 132.464 62.8955 132.464C62.771 132.464 62.5842 132.464 62.4596 132.464C62.3351 132.464 62.1482 132.402 62.0237 132.339C61.8992 132.277 61.7746 132.214 61.7123 132.152C61.6501 132.089 61.5878 131.964 61.5878 131.84V123.658H56.7928V131.84C56.7928 131.964 56.7305 132.027 56.6683 132.152C56.606 132.214 56.4815 132.277 56.3569 132.339C56.2324 132.402 56.1078 132.402 55.921 132.402C55.7965 132.402 55.6096 132.402 55.4851 132.402C55.3606 132.402 55.236 132.402 55.1115 132.402C54.9869 132.402 54.9246 132.339 54.8624 132.339C54.8001 132.277 54.7378 132.277 54.6756 132.152C54.6133 132.089 54.6133 131.964 54.6133 131.902V122.534C54.6133 122.284 54.6756 122.159 54.8001 122.034C54.9246 121.909 55.1737 121.847 55.4228 121.847C55.6719 121.972 56.7928 121.909 56.7928 121.909Z" fill="white"/>
<path d="M70.2427 123.658C69.6822 123.658 69.2463 123.721 68.935 123.845C68.6236 123.97 68.3122 124.158 68.1877 124.408C68.0009 124.657 67.8763 125.032 67.8141 125.407C67.7518 125.844 67.7518 126.344 67.7518 126.906V127.343C67.7518 127.905 67.7518 128.405 67.8141 128.842C67.8763 129.279 68.0009 129.591 68.1877 129.841C68.3745 130.091 68.6236 130.278 68.935 130.403C69.2463 130.528 69.7445 130.59 70.2427 130.59H70.305C70.8654 130.59 71.3013 130.528 71.6127 130.403C71.924 130.278 72.1731 130.091 72.3599 129.841C72.5468 129.591 72.6713 129.216 72.7336 128.842C72.7959 128.405 72.7959 127.905 72.7959 127.343V126.906C72.7959 126.344 72.7959 125.844 72.7336 125.407C72.6713 124.97 72.5468 124.657 72.3599 124.408C72.1731 124.158 71.924 123.97 71.6127 123.845C71.3013 123.721 70.8654 123.658 70.305 123.658H70.2427ZM70.2427 132.464C69.5577 132.464 68.935 132.402 68.4368 132.277C67.9386 132.152 67.5027 131.964 67.1291 131.715C66.7554 131.465 66.5063 131.215 66.3195 130.903C66.1327 130.59 65.9459 130.216 65.8214 129.841C65.6968 129.466 65.6345 129.029 65.6345 128.592C65.6345 128.155 65.5723 127.655 65.5723 127.218V127.156C65.5723 126.656 65.5723 126.219 65.6345 125.782C65.6968 125.344 65.7591 124.907 65.8214 124.532C65.9459 124.158 66.0704 123.783 66.3195 123.471C66.5063 123.158 66.8177 122.846 67.1291 122.659C67.5027 122.409 67.8763 122.222 68.4368 122.097C68.935 121.972 69.5577 121.909 70.2427 121.909H70.305C70.99 121.909 71.6127 121.972 72.1109 122.097C72.609 122.222 73.0449 122.409 73.3563 122.659C73.7299 122.909 73.979 123.158 74.1658 123.471C74.3527 123.783 74.5395 124.158 74.664 124.532C74.7886 124.907 74.8508 125.344 74.8508 125.782C74.9131 126.219 74.9131 126.718 74.9131 127.156V127.218C74.9131 127.718 74.9131 128.155 74.8508 128.592C74.7886 129.029 74.7263 129.466 74.664 129.841C74.5395 130.216 74.4149 130.59 74.1658 130.903C73.979 131.215 73.6677 131.527 73.3563 131.715C72.9827 131.964 72.609 132.152 72.1109 132.277C71.6127 132.402 71.0522 132.464 70.2427 132.464Z" fill="white"/>
<path d="M77.8397 131.465C77.7774 131.715 77.6529 131.902 77.5906 132.089C77.4661 132.214 77.4038 132.339 77.2792 132.402C77.1547 132.464 77.0301 132.527 76.9056 132.527C76.7811 132.527 76.5942 132.527 76.4074 132.527C76.2829 132.527 76.1583 132.527 76.0338 132.464C75.9092 132.402 75.847 132.339 75.7847 132.214C75.7224 132.089 75.6602 131.964 75.6602 131.777C75.6602 131.59 75.7224 131.34 75.7847 131.09L78.5247 123.221C78.6492 122.846 78.7738 122.596 78.9606 122.409C79.0851 122.222 79.272 122.097 79.4588 122.034C79.6456 121.972 79.8324 121.909 80.0192 121.909C80.206 121.909 80.3929 121.909 80.5797 121.909H80.891C81.0778 121.909 81.2647 121.909 81.4515 121.909C81.6383 121.909 81.8251 121.972 82.0119 122.034C82.1988 122.097 82.3233 122.222 82.5101 122.409C82.6347 122.596 82.8215 122.846 82.946 123.221L85.686 131.09C85.8106 131.34 85.8106 131.59 85.8106 131.777C85.8106 131.964 85.7483 132.089 85.686 132.214C85.6237 132.339 85.4992 132.402 85.4369 132.464C85.3124 132.527 85.1878 132.527 85.0633 132.527C84.8765 132.527 84.6897 132.527 84.5651 132.527C84.4406 132.527 84.316 132.464 84.1915 132.402C84.0669 132.339 83.9424 132.214 83.8801 132.089C83.7556 131.964 83.6933 131.777 83.631 131.465L81.0779 123.908C81.0779 123.845 81.0156 123.783 81.0156 123.721C81.0156 123.658 80.9533 123.658 80.9533 123.658H80.891H80.8288H80.7665C80.7042 123.658 80.7042 123.658 80.7042 123.721C80.7042 123.783 80.6419 123.845 80.6419 123.908L77.8397 131.465Z" fill="white"/>
<path d="M99.1385 126.281H101.318H102.75C103.124 126.281 103.373 126.281 103.56 126.281C103.747 126.281 103.871 126.281 103.933 126.281V122.596C103.933 122.471 103.996 122.409 104.058 122.284C104.12 122.222 104.245 122.097 104.369 122.034C104.494 121.972 104.618 121.909 104.805 121.909C104.93 121.847 105.117 121.847 105.241 121.847C105.553 121.847 105.739 121.909 105.864 121.972C105.988 122.034 106.051 122.222 106.051 122.471V131.964C106.051 132.089 106.051 132.152 105.988 132.277C105.926 132.339 105.864 132.402 105.802 132.464C105.739 132.526 105.615 132.526 105.553 132.526C105.428 132.526 105.303 132.526 105.241 132.526C105.117 132.526 104.93 132.526 104.805 132.526C104.681 132.526 104.494 132.464 104.369 132.402C104.245 132.339 104.12 132.277 104.058 132.214C103.996 132.152 103.933 132.027 103.933 131.902V128.092H99.1385V131.902C99.1385 132.027 99.0762 132.089 99.014 132.214C98.9517 132.277 98.8272 132.339 98.7026 132.402C98.5781 132.464 98.4535 132.464 98.2667 132.526C98.1422 132.526 97.9553 132.526 97.8308 132.526C97.7063 132.526 97.5817 132.526 97.4572 132.526C97.3326 132.526 97.2704 132.464 97.2081 132.464C97.1458 132.402 97.0835 132.402 97.0213 132.277C96.959 132.214 96.959 132.089 96.959 132.027V122.534C96.959 122.284 97.0213 122.159 97.1458 122.034C97.2703 121.909 97.5194 121.847 97.7685 121.847C97.8931 121.847 98.0799 121.847 98.2044 121.909C98.329 121.909 98.5158 121.972 98.5781 122.034C98.7026 122.097 98.7649 122.159 98.8894 122.284C98.9517 122.347 99.014 122.471 99.014 122.596V126.281H99.1385Z" fill="white"/>
<path d="M110.284 128.654H113.895L112.276 123.908C112.276 123.845 112.214 123.783 112.214 123.721C112.214 123.658 112.152 123.658 112.089 123.658H111.965C111.903 123.658 111.903 123.658 111.903 123.721C111.903 123.783 111.84 123.845 111.84 123.908L110.284 128.654ZM114.456 130.341H109.723L109.349 131.465C109.287 131.715 109.163 131.902 109.1 132.089C109.038 132.214 108.914 132.339 108.789 132.402C108.664 132.464 108.54 132.527 108.415 132.527C108.291 132.527 108.104 132.527 107.917 132.527C107.793 132.527 107.668 132.527 107.544 132.464C107.419 132.402 107.357 132.339 107.294 132.214C107.232 132.089 107.17 131.964 107.17 131.777C107.17 131.59 107.232 131.34 107.294 131.09L110.034 123.221C110.159 122.846 110.284 122.596 110.47 122.409C110.595 122.222 110.782 122.097 110.969 122.034C111.155 121.972 111.342 121.909 111.529 121.909C111.716 121.909 111.903 121.909 112.089 121.909H112.339C112.525 121.909 112.712 121.909 112.899 121.909C113.086 121.909 113.273 121.972 113.459 122.034C113.646 122.097 113.771 122.222 113.958 122.409C114.082 122.596 114.269 122.846 114.394 123.221L117.134 131.09C117.258 131.34 117.258 131.59 117.258 131.777C117.258 131.964 117.196 132.089 117.134 132.214C117.071 132.339 116.947 132.402 116.884 132.464C116.76 132.527 116.635 132.527 116.511 132.527C116.324 132.527 116.137 132.527 116.013 132.527C115.888 132.527 115.764 132.464 115.639 132.402C115.514 132.339 115.39 132.214 115.328 132.089C115.203 131.964 115.141 131.777 115.079 131.465L114.456 130.341Z" fill="white"/>
<path d="M92.7852 123.783V126.843H90.917C90.4188 126.843 90.0452 126.781 89.7338 126.718C89.4224 126.656 89.1734 126.531 89.0488 126.406C88.862 126.281 88.7374 126.156 88.6752 125.969C88.6129 125.781 88.5506 125.532 88.5506 125.282C88.5506 124.97 88.6129 124.782 88.6752 124.595C88.7374 124.407 88.862 124.283 89.0488 124.158C89.2356 124.033 89.4224 123.97 89.7338 123.908C90.0452 123.845 90.4811 123.783 90.917 123.783H92.7852ZM92.7852 128.654V132.027C92.7852 132.152 92.7852 132.214 92.8474 132.339C92.9097 132.401 92.972 132.464 93.0965 132.526C93.2211 132.589 93.2833 132.589 93.4079 132.589C93.5324 132.589 93.657 132.589 93.7815 132.589C93.9061 132.589 94.0306 132.589 94.2174 132.589C94.342 132.589 94.4665 132.526 94.5288 132.526C94.6533 132.464 94.7156 132.464 94.7779 132.339C94.8401 132.277 94.8401 132.152 94.8401 132.089V122.971V122.846C94.8401 122.659 94.7779 122.596 94.7779 122.534C94.7156 122.471 94.6533 122.346 94.5911 122.284C94.5288 122.222 94.4042 122.159 94.2797 122.097C94.1551 122.034 93.9683 122.034 93.7815 122.034H91.0415C90.7302 122.034 90.5433 122.034 90.232 122.034C89.9829 122.034 89.4847 122.097 89.1111 122.159C88.7997 122.222 88.4261 122.346 88.1147 122.471C87.8034 122.596 87.492 122.846 87.2429 123.096C86.9938 123.346 86.807 123.658 86.6202 124.033C86.4956 124.407 86.3711 124.845 86.3711 125.344C86.3711 125.844 86.4334 126.219 86.5579 126.531C86.6825 126.843 86.807 127.155 86.9938 127.405C87.1806 127.655 87.4297 127.842 87.6788 128.03C87.9279 128.217 88.177 128.342 88.4884 128.404L86.4956 131.839C86.4334 131.964 86.4334 132.027 86.4334 132.152C86.4334 132.214 86.4956 132.277 86.5579 132.339C86.6202 132.401 86.7447 132.464 86.807 132.464C86.8693 132.464 86.9938 132.526 87.1184 132.589C87.2429 132.589 87.3675 132.651 87.4297 132.651C87.5543 132.651 87.6165 132.651 87.6788 132.651C87.8656 132.651 88.0524 132.589 88.2393 132.526C88.4261 132.464 88.5506 132.339 88.6129 132.214L90.6056 128.717H90.917H91.6643H92.7852V128.654Z" fill="white"/>
<path d="M66.8814 113.915C67.0059 113.915 67.1305 113.915 67.255 113.915C67.3796 113.915 67.5664 113.915 67.6909 113.915H68.1268H68.5627H68.625C69.1232 113.915 69.4968 113.853 69.8082 113.79C70.1196 113.728 70.3064 113.603 70.4932 113.541C70.68 113.416 70.7423 113.291 70.8046 113.103C70.8668 112.916 70.8668 112.729 70.8668 112.479V112.354C70.8668 112.104 70.8046 111.917 70.8046 111.729C70.7423 111.542 70.68 111.417 70.4932 111.292C70.3686 111.167 70.1196 111.042 69.8705 110.98C69.5591 110.918 69.1855 110.855 68.7496 110.855C68.6873 110.855 68.6873 110.855 68.625 110.855C68.5627 110.855 68.5627 110.855 68.5627 110.855H66.8191V113.915H66.8814ZM68.5627 109.044C68.8741 109.044 69.1855 109.044 69.4968 109.106C69.8082 109.106 70.1818 109.169 70.4932 109.231C70.8046 109.294 71.1159 109.419 71.4273 109.544C71.7386 109.668 71.9877 109.918 72.2368 110.106C72.4859 110.355 72.6727 110.668 72.7973 111.042C72.9218 111.417 72.9841 111.854 72.9841 112.354C72.9841 112.854 72.9218 113.291 72.7973 113.666C72.6727 114.04 72.4859 114.352 72.2991 114.602C72.1123 114.852 71.8632 115.039 71.5518 115.227C71.2405 115.352 70.9914 115.477 70.68 115.602C70.3686 115.664 70.0573 115.726 69.7459 115.789C69.4346 115.789 69.1232 115.851 68.8118 115.851H66.9437V119.161C66.9437 119.286 66.8814 119.349 66.8814 119.474C66.8191 119.536 66.7568 119.599 66.6323 119.661C66.5078 119.723 66.4455 119.723 66.3209 119.723C66.1964 119.723 66.0719 119.723 65.9473 119.723C65.8228 119.723 65.6982 119.723 65.5114 119.723C65.3869 119.723 65.2623 119.661 65.2 119.661C65.0755 119.599 65.0132 119.599 64.9509 119.474C64.8887 119.411 64.8887 119.286 64.8887 119.224V110.168V110.106V109.918C64.8887 109.856 64.8887 109.856 64.8887 109.856C64.8887 109.793 64.9509 109.668 64.9509 109.606C65.0132 109.544 65.0755 109.419 65.1378 109.356C65.2 109.294 65.3246 109.231 65.4491 109.169C65.5737 109.106 65.7605 109.106 65.9473 109.106H68.5627V109.044Z" fill="white"/>
<path d="M87.9898 108.981C88.488 108.981 88.9862 109.044 89.3598 109.106C89.7957 109.169 90.1071 109.294 90.4185 109.419C90.7298 109.544 90.9166 109.731 91.1035 109.918C91.2903 110.106 91.3525 110.355 91.3525 110.605C91.3525 110.668 91.3526 110.793 91.2903 110.918C91.2903 111.042 91.228 111.105 91.1657 111.167C91.1035 111.23 91.0412 111.292 90.9166 111.355C90.7921 111.417 90.6675 111.417 90.543 111.417C90.4185 111.417 90.2939 111.417 90.2316 111.355C90.1071 111.355 90.0448 111.292 89.9203 111.23C89.7957 111.167 89.7335 111.105 89.6089 111.105C89.4844 111.042 89.3598 110.98 89.173 110.98C88.9862 110.918 88.7994 110.918 88.6126 110.855C88.3635 110.855 88.1144 110.793 87.8653 110.793H87.7407C87.1803 110.793 86.7444 110.855 86.433 110.98C86.1217 111.105 85.8103 111.292 85.6858 111.542C85.4989 111.792 85.3744 112.167 85.3121 112.541C85.2499 112.978 85.2498 113.478 85.2498 114.04V114.477C85.2498 115.039 85.2499 115.539 85.3121 115.976C85.3744 116.413 85.4989 116.726 85.6858 116.975C85.8726 117.225 86.1217 117.413 86.433 117.538C86.7444 117.662 87.1803 117.725 87.7407 117.725H87.8653C88.1767 117.725 88.4257 117.725 88.6126 117.662C88.8617 117.662 89.0485 117.6 89.173 117.538C89.3598 117.475 89.4844 117.413 89.6089 117.413C89.7335 117.35 89.858 117.288 89.9203 117.288C90.0448 117.225 90.1071 117.225 90.2316 117.163C90.3562 117.163 90.4185 117.1 90.543 117.1C90.6675 117.1 90.7921 117.1 90.9166 117.163C91.0412 117.225 91.1035 117.288 91.1657 117.35C91.228 117.413 91.2903 117.538 91.2903 117.6C91.2903 117.725 91.3525 117.787 91.3525 117.85C91.3525 118.1 91.2903 118.287 91.1035 118.537C90.9166 118.724 90.7298 118.912 90.4185 119.036C90.1071 119.161 89.7957 119.286 89.3598 119.349C88.9239 119.411 88.488 119.474 87.9898 119.474H87.7407C87.0557 119.474 86.433 119.411 85.9348 119.286C85.4367 119.161 85.0008 118.974 84.6271 118.724C84.2535 118.474 84.0044 118.225 83.8176 117.912C83.6308 117.6 83.444 117.225 83.3194 116.851C83.1949 116.476 83.1326 116.039 83.1326 115.602C83.0703 115.164 83.0703 114.665 83.0703 114.228V114.29C83.0703 113.79 83.0703 113.353 83.1326 112.916C83.1326 112.479 83.2571 112.042 83.3194 111.667C83.444 111.292 83.5685 110.918 83.8176 110.605C84.0667 110.293 84.3158 109.981 84.6271 109.793C85.0008 109.544 85.3744 109.356 85.9348 109.231C86.433 109.106 87.0557 109.044 87.7407 109.044H87.9898V108.981Z" fill="white"/>
<path d="M94.6541 113.416H96.8337H98.2659C98.6396 113.416 98.8887 113.416 99.0755 113.416C99.2623 113.416 99.3868 113.416 99.4491 113.416V109.731C99.4491 109.606 99.5114 109.543 99.5737 109.419C99.6359 109.356 99.7605 109.231 99.885 109.169C100.01 109.106 100.134 109.044 100.321 109.044C100.445 108.981 100.632 108.981 100.757 108.981C101.068 108.981 101.255 109.044 101.38 109.106C101.504 109.169 101.566 109.356 101.566 109.606V119.036C101.566 119.161 101.566 119.224 101.504 119.349C101.442 119.411 101.38 119.474 101.317 119.536C101.255 119.599 101.13 119.599 101.068 119.599C100.944 119.599 100.819 119.599 100.757 119.599C100.632 119.599 100.445 119.599 100.321 119.599C100.196 119.599 100.01 119.536 99.885 119.474C99.7605 119.411 99.6359 119.349 99.5737 119.286C99.5114 119.224 99.4491 119.099 99.4491 118.974V115.164H94.6541V118.974C94.6541 119.099 94.5919 119.161 94.5296 119.286C94.4673 119.349 94.3428 119.411 94.2182 119.474C94.0937 119.536 93.9692 119.536 93.7823 119.536C93.6578 119.536 93.471 119.536 93.3464 119.536C93.2219 119.536 93.0973 119.536 92.9728 119.536C92.8482 119.536 92.786 119.474 92.7237 119.474C92.6614 119.411 92.5992 119.411 92.5369 119.286C92.4746 119.224 92.4746 119.099 92.4746 119.036V109.606C92.4746 109.356 92.5369 109.231 92.6614 109.106C92.786 108.981 93.0351 108.919 93.2842 108.919C93.4087 108.919 93.5955 108.919 93.7201 108.981C93.8446 108.981 94.0314 109.044 94.0937 109.106C94.2182 109.169 94.3428 109.231 94.4051 109.356C94.4673 109.419 94.5296 109.543 94.5296 109.668V113.416H94.6541Z" fill="white"/>
<path d="M105.801 115.789H109.413L107.794 111.042C107.794 110.98 107.732 110.918 107.732 110.855C107.732 110.793 107.669 110.793 107.607 110.793H107.482C107.42 110.793 107.42 110.793 107.42 110.855C107.42 110.918 107.358 110.98 107.358 111.042L105.801 115.789ZM109.973 117.475H105.241L104.867 118.537C104.805 118.787 104.68 118.974 104.618 119.161C104.493 119.286 104.431 119.411 104.307 119.474C104.182 119.536 104.057 119.599 103.933 119.599C103.808 119.599 103.622 119.599 103.435 119.599C103.31 119.599 103.186 119.599 103.061 119.536C102.937 119.474 102.874 119.411 102.812 119.286C102.75 119.161 102.688 119.036 102.688 118.849C102.688 118.662 102.75 118.412 102.812 118.162L105.552 110.293C105.677 109.918 105.801 109.668 105.988 109.481C106.112 109.294 106.299 109.169 106.486 109.106C106.673 109.044 106.86 108.981 107.047 108.981C107.233 108.981 107.42 108.981 107.607 108.981H107.856C108.043 108.981 108.23 108.981 108.417 108.981C108.603 108.981 108.79 109.044 108.977 109.106C109.164 109.169 109.288 109.294 109.475 109.481C109.6 109.668 109.787 109.918 109.911 110.293L112.651 118.162C112.776 118.412 112.776 118.662 112.776 118.849C112.776 119.036 112.713 119.161 112.651 119.286C112.589 119.411 112.464 119.474 112.402 119.536C112.277 119.599 112.153 119.599 112.028 119.599C111.842 119.599 111.655 119.599 111.53 119.599C111.406 119.599 111.281 119.536 111.157 119.474C111.032 119.411 110.907 119.286 110.845 119.161C110.721 119.036 110.658 118.849 110.596 118.537L109.973 117.475Z" fill="white"/>
<path d="M119.75 110.855V113.915H117.882C117.384 113.915 117.01 113.853 116.699 113.79C116.387 113.728 116.138 113.603 116.014 113.478C115.827 113.353 115.702 113.228 115.64 113.041C115.578 112.854 115.515 112.604 115.515 112.354C115.515 112.042 115.578 111.854 115.64 111.667C115.702 111.48 115.827 111.355 116.014 111.23C116.2 111.105 116.387 111.043 116.699 110.98C117.01 110.918 117.446 110.855 117.882 110.855H119.75ZM119.75 115.727V119.037C119.75 119.161 119.75 119.224 119.812 119.349C119.875 119.474 119.937 119.474 120.061 119.536C120.186 119.599 120.248 119.599 120.373 119.599C120.497 119.599 120.622 119.599 120.746 119.599C120.871 119.599 120.995 119.599 121.182 119.599C121.307 119.599 121.431 119.536 121.494 119.536C121.618 119.474 121.68 119.474 121.743 119.349C121.805 119.286 121.805 119.161 121.805 119.099V110.043V109.918C121.805 109.731 121.743 109.669 121.743 109.606C121.68 109.544 121.618 109.419 121.556 109.356C121.494 109.294 121.369 109.231 121.245 109.169C121.12 109.106 120.933 109.106 120.746 109.106H118.006C117.695 109.106 117.508 109.106 117.197 109.106C116.948 109.106 116.45 109.169 116.076 109.231C115.765 109.294 115.391 109.419 115.08 109.544C114.768 109.669 114.457 109.918 114.208 110.168C113.959 110.418 113.772 110.73 113.585 111.105C113.46 111.48 113.336 111.917 113.336 112.416C113.336 112.916 113.398 113.291 113.523 113.603C113.647 113.915 113.772 114.228 113.959 114.477C114.145 114.727 114.395 114.915 114.644 115.102C114.893 115.289 115.142 115.414 115.453 115.477L113.46 118.849C113.398 118.974 113.398 119.037 113.398 119.161C113.398 119.224 113.46 119.286 113.523 119.349C113.585 119.411 113.71 119.474 113.772 119.474C113.896 119.536 113.959 119.536 114.083 119.599C114.208 119.599 114.332 119.661 114.395 119.661C114.519 119.661 114.581 119.661 114.644 119.661C114.83 119.661 115.017 119.599 115.204 119.536C115.391 119.474 115.515 119.349 115.578 119.224L117.508 115.789H117.82H118.567H119.75V115.727Z" fill="white"/>
<path d="M75.6607 115.789H79.2725L77.6534 111.042C77.6534 110.98 77.5912 110.918 77.5912 110.855C77.5912 110.793 77.5289 110.793 77.5289 110.793H77.4043C77.3421 110.793 77.3421 110.793 77.3421 110.855C77.3421 110.918 77.2798 110.98 77.2798 111.042L75.6607 115.789ZM79.8952 117.475H75.1625L74.7889 118.537C74.7266 118.787 74.6021 118.974 74.5398 119.161C74.4153 119.286 74.353 119.411 74.2285 119.474C74.1039 119.536 73.9794 119.599 73.8548 119.599C73.7303 119.599 73.5435 119.599 73.3566 119.599C73.2321 119.599 73.1076 119.599 72.983 119.536C72.8585 119.474 72.7962 119.411 72.7339 119.286C72.6717 119.161 72.6094 119.036 72.6094 118.849C72.6094 118.662 72.6717 118.412 72.7339 118.162L75.4739 110.293C75.5984 109.918 75.723 109.668 75.9098 109.481C76.0343 109.294 76.2212 109.169 76.408 109.106C76.5948 109.044 76.7816 108.981 76.9684 108.981C77.1552 108.981 77.3421 108.981 77.5289 108.981H77.778C77.9648 108.981 78.1516 108.981 78.3384 108.981C78.5252 108.981 78.7121 109.044 78.8989 109.106C79.0857 109.169 79.2102 109.294 79.397 109.481C79.5216 109.668 79.7084 109.918 79.833 110.293L82.5729 118.162C82.6975 118.412 82.6975 118.662 82.6975 118.849C82.6975 119.036 82.6352 119.161 82.5729 119.286C82.5107 119.411 82.3861 119.474 82.3238 119.536C82.1993 119.599 82.0748 119.599 81.9502 119.599C81.7634 119.599 81.5766 119.599 81.452 119.599C81.3275 119.599 81.2029 119.536 81.0784 119.474C80.9539 119.411 80.8293 119.286 80.767 119.161C80.6425 119.036 80.5802 118.849 80.518 118.537L79.8952 117.475Z" fill="white"/>
<path d="M56.7928 119.036C56.7928 119.161 56.7305 119.224 56.6683 119.349C56.606 119.411 56.4815 119.474 56.3569 119.536C56.2324 119.599 56.1078 119.599 55.921 119.599C55.7965 119.599 55.6096 119.599 55.4851 119.599C55.3606 119.599 55.236 119.599 55.1115 119.599C54.9869 119.599 54.9246 119.536 54.8624 119.536C54.8001 119.474 54.7378 119.474 54.6756 119.349C54.6133 119.286 54.6133 119.161 54.6133 119.099V109.731C54.6133 109.481 54.6756 109.356 54.8001 109.231C54.9246 109.106 55.1737 109.044 55.4228 109.044C55.5474 109.044 55.7342 109.044 55.8587 109.106C55.9833 109.106 56.1701 109.169 56.2324 109.231C56.3569 109.294 56.4815 109.356 56.5437 109.481C56.606 109.544 56.6683 109.668 56.6683 109.793V113.291C56.6683 113.291 56.6683 113.416 56.7305 113.478C56.7928 113.478 56.7928 113.541 56.8551 113.541C56.9174 113.541 56.9796 113.541 57.0419 113.541C57.1042 113.541 57.1665 113.478 57.1665 113.478L61.0896 109.731C61.2142 109.606 61.3387 109.544 61.4632 109.481C61.5878 109.419 61.6501 109.356 61.7746 109.294C61.8991 109.231 62.0237 109.231 62.086 109.231C62.2105 109.231 62.2728 109.231 62.4596 109.231C62.5841 109.231 62.6464 109.231 62.771 109.294C62.8332 109.356 62.9578 109.356 63.0201 109.419C63.0823 109.481 63.1446 109.544 63.2069 109.668C63.2691 109.793 63.2691 109.856 63.2691 110.043C63.2691 110.106 63.2691 110.231 63.2691 110.293C63.2691 110.355 63.2069 110.48 63.1446 110.543C63.0823 110.668 63.0201 110.73 62.8955 110.855C62.771 110.98 62.6464 111.105 62.5219 111.23L59.346 114.228C59.2837 114.29 59.2214 114.352 59.2214 114.415C59.2214 114.477 59.2214 114.477 59.2214 114.54C59.2214 114.602 59.2214 114.602 59.2214 114.665C59.2214 114.727 59.2837 114.79 59.346 114.852L62.3973 117.787C62.5219 117.912 62.6464 118.1 62.771 118.162C62.8955 118.287 62.9578 118.412 63.0201 118.474C63.0823 118.599 63.0823 118.662 63.1446 118.724C63.1446 118.787 63.1446 118.912 63.1446 118.974C63.1446 119.099 63.1446 119.224 63.0823 119.349C63.0201 119.474 62.9578 119.536 62.8955 119.599C62.8332 119.661 62.771 119.723 62.6464 119.723C62.5219 119.786 62.4596 119.786 62.3351 119.786C62.2105 119.786 62.086 119.786 61.9614 119.786C61.8369 119.786 61.7746 119.723 61.6501 119.723C61.5255 119.661 61.4632 119.661 61.3387 119.536C61.2142 119.474 61.0896 119.349 60.9651 119.286C60.9651 119.286 57.4155 115.851 57.1665 115.602C57.1042 115.539 57.1042 115.539 57.0419 115.539C56.9796 115.539 56.9174 115.539 56.8551 115.539C56.7928 115.539 56.7928 115.539 56.7305 115.602C56.6683 115.664 56.6683 115.789 56.6683 115.789V119.036H56.7928Z" fill="white"/>
<path d="M54.7383 137.96C54.7383 137.772 54.8628 137.647 55.0496 137.647H121.557C121.743 137.647 121.868 137.772 121.868 137.96V138.834C121.868 139.021 121.743 139.146 121.557 139.146H55.0496C54.8628 139.146 54.7383 139.021 54.7383 138.834V137.96Z" fill="white"/>
<path d="M60.903 151.575L59.3462 148.452C59.1594 148.077 58.9103 147.765 58.6612 147.578C58.4121 147.328 58.1008 147.203 57.7271 147.078L60.7785 143.019C60.7785 142.956 60.8407 142.956 60.8407 142.894C60.8407 142.831 60.7785 142.831 60.7162 142.831H60.4048C60.3426 142.831 60.218 142.831 60.218 142.831C60.1557 142.831 60.1557 142.894 60.0935 142.956L57.1667 146.953C57.1044 146.953 57.0421 146.953 57.0421 146.953C56.9799 146.953 56.9176 146.953 56.8553 146.953H55.2985V143.019C55.2985 142.956 55.2985 142.894 55.2362 142.894C55.2362 142.894 55.174 142.831 55.1117 142.831H54.8626C54.8003 142.831 54.7381 142.831 54.7381 142.894C54.7381 142.894 54.6758 142.956 54.6758 143.019V151.575C54.6758 151.637 54.6758 151.7 54.7381 151.7C54.7381 151.7 54.8003 151.762 54.8626 151.762H55.1117C55.174 151.762 55.2362 151.762 55.2362 151.7C55.2362 151.7 55.2985 151.637 55.2985 151.575V147.515H56.8553C57.3535 147.515 57.7894 147.578 58.0385 147.828C58.3498 148.015 58.5989 148.327 58.7858 148.702L60.218 151.637C60.218 151.7 60.2803 151.7 60.3426 151.762C60.4048 151.762 60.4671 151.762 60.5294 151.762H60.7785C60.8407 151.762 60.903 151.762 60.903 151.7C60.903 151.7 60.903 151.637 60.903 151.575Z" fill="white"/>
<path d="M73.2939 147.765H70.4294V143.393H73.2939C73.9789 143.393 74.5393 143.581 74.913 143.955C75.2866 144.33 75.4734 144.892 75.5357 145.579C75.5357 146.266 75.3489 146.766 74.913 147.14C74.5393 147.578 73.9789 147.765 73.2939 147.765ZM73.3562 142.894H69.9935C69.9312 142.894 69.8689 142.894 69.8689 142.956C69.8689 142.956 69.8066 143.018 69.8066 143.081V151.637C69.8066 151.699 69.8066 151.762 69.8689 151.762C69.8689 151.762 69.9312 151.824 69.9935 151.824H70.2426C70.3048 151.824 70.3048 151.824 70.3671 151.762C70.3671 151.762 70.4294 151.699 70.4294 151.637V148.327H73.3562C74.228 148.327 74.8507 148.077 75.3489 147.64C75.8471 147.14 76.0962 146.516 76.0962 145.642C76.0962 144.767 75.8471 144.143 75.3489 143.643C74.913 143.143 74.228 142.894 73.3562 142.894Z" fill="white"/>
<path d="M83.4443 145.829V148.889C83.4443 149.701 83.1952 150.326 82.7593 150.763C82.2611 151.2 81.5761 151.45 80.7043 151.45C79.7702 151.45 79.0852 151.2 78.6493 150.763C78.1511 150.326 77.9643 149.701 77.9643 148.889V145.829C77.9643 145.017 78.2134 144.393 78.6493 143.955C79.1475 143.518 79.8325 143.268 80.7043 143.268C81.5761 143.268 82.2611 143.518 82.7593 143.955C83.1952 144.393 83.4443 145.017 83.4443 145.829ZM77.2793 145.829V148.889C77.2793 149.826 77.5907 150.575 78.1511 151.138C78.7116 151.7 79.5834 151.949 80.642 151.949C81.7006 151.949 82.5724 151.637 83.1329 151.138C83.6933 150.575 84.0047 149.826 84.0047 148.889V145.829C84.0047 144.892 83.6933 144.143 83.1329 143.581C82.5724 143.019 81.7629 142.769 80.642 142.769C79.5211 142.769 78.7116 143.081 78.1511 143.581C77.5907 144.08 77.2793 144.83 77.2793 145.829Z" fill="white"/>
<path d="M89.2372 147.765H86.3727V143.393H89.2372C89.9222 143.393 90.4827 143.581 90.8563 143.955C91.23 144.33 91.4168 144.892 91.479 145.579C91.479 146.266 91.2922 146.766 90.8563 147.14C90.4827 147.578 89.9222 147.765 89.2372 147.765ZM89.2995 142.894H85.9368C85.8745 142.894 85.8123 142.894 85.8123 142.956C85.8123 142.956 85.75 143.018 85.75 143.081V151.637C85.75 151.699 85.75 151.762 85.8123 151.762C85.8123 151.762 85.8745 151.824 85.9368 151.824H86.1859C86.2482 151.824 86.2482 151.824 86.3105 151.762C86.3105 151.762 86.3727 151.699 86.3105 151.637V148.327H89.2372C90.1091 148.327 90.7318 148.077 91.23 147.64C91.7281 147.14 91.9772 146.516 91.9772 145.642C91.9772 144.767 91.7281 144.143 91.23 143.643C90.794 143.143 90.1091 142.894 89.2995 142.894Z" fill="white"/>
<path d="M98.7646 142.894H92.7864C92.7242 142.894 92.6619 142.894 92.6619 142.956C92.6619 142.956 92.5996 143.018 92.5996 143.081V143.331C92.5996 143.393 92.5996 143.456 92.6619 143.456C92.6619 143.456 92.7242 143.518 92.7864 143.518H95.4641V151.7C95.4641 151.762 95.4641 151.824 95.5264 151.824C95.5264 151.824 95.5887 151.887 95.651 151.887H95.9C95.9623 151.887 96.0246 151.887 96.0246 151.824C96.0246 151.824 96.0869 151.762 96.0869 151.7V143.518H98.7646C98.8269 143.518 98.8891 143.518 98.8891 143.456C98.8891 143.456 98.9514 143.393 98.9514 143.331V143.081C98.9514 143.018 98.9514 142.956 98.8891 142.956C98.8269 142.894 98.8269 142.894 98.7646 142.894Z" fill="white"/>
<path d="M68.6865 142.894H68.3751C68.3129 142.894 68.2506 142.894 68.1883 142.894C68.126 142.894 68.126 142.956 68.0638 143.018L65.137 147.515L62.2102 143.018C62.2102 142.956 62.1479 142.894 62.0856 142.894C62.0233 142.894 61.9611 142.894 61.8988 142.894H61.5874C61.5252 142.894 61.5252 142.894 61.4629 142.956C61.4629 142.956 61.4629 143.018 61.4629 143.081L64.7633 148.077L62.6461 151.637C62.5838 151.699 62.5838 151.762 62.6461 151.762C62.6461 151.762 62.7083 151.824 62.7706 151.824H63.1442C63.2065 151.824 63.2065 151.824 63.2688 151.762C63.2688 151.762 63.3311 151.699 63.3311 151.637L65.3861 148.14L68.7488 143.081C68.7488 143.018 68.7488 143.018 68.7488 142.956C68.811 142.894 68.7488 142.894 68.6865 142.894Z" fill="white"/>
</svg>
